authors
…
Summarizing Read Counts by Author

most_read_authors <- books %>%
  group_by(authors) %>%
  summarize(
    total_ratings = sum(work_ratings_count, na.rm = TRUE), 
    num_books = n() #Count the number of books per author
  ) %>%
  arrange(desc(total_ratings))

head(most_read_authors, 50)

## # A tibble: 50 × 3
##    authors                     total_ratings num_books
##    <chr>                               <int>     <int>
##  1 J.K. Rowling, Mary GrandPré      14126791         8
##  2 Suzanne Collins                   9161124         9
##  3 Stephenie Meyer                   8631937        11
##  4 Stephen King                      7297834        60
##  5 Rick Riordan                      5717999        22
##  6 J.R.R. Tolkien                    5602790         6
##  7 Dan Brown                         5332589         7
##  8 Cassandra Clare                   4631019        13
##  9 Nicholas Sparks                   4501871        19
## 10 John Green                        4312589         4
## # ℹ 40 more rows
…
